{
  "properties": [
    {
      "name": "bot.token",
      "type": "java.lang.String",
      "description": "The Bot API token."
    },
    {
      "name": "bot.username",
      "type": "java.lang.String",
      "description": "The username of the bot, without the @ symbol."
    },
    {
      "name": "bot.creator",
      "type": "java.lang.Long",
      "description": "The user ID of the bot creator."
    },
    {
      "name": "bot.notification.cron",
      "type": "java.lang.String",
      "description": "The Spring scheduler cron string for the change notification."
    },
    {
      "name": "bot.notification.change-duration",
      "type": "java.lang.Long",
      "description": "Time in hours for how long until they need to be reminded."
    },
    {
      "name": "bot.notification.interval",
      "type": "java.lang.Long",
      "description": "Time in minutes how often this check is done."
    }
  ]
}
